info face="Saira ExtraCondensed" size=35 bold=0 italic=0 charset="" unicode=0 stretchH=100 smooth=1 aa=1 padding=0,0,0,0 spacing=0,0
common lineHeight=55 base=40 scaleW=384 scaleH=384 pages=1 packed=0
page id=0 file="Saira_ExtraBold.png"
chars count=230
char id=32 x=184 y=26 width=0 height=0 xoffset=0 yoffset=40 xadvance=6 page=0 chnl=0
char id=33 x=262 y=336 width=8 height=28 xoffset=2 yoffset=14 xadvance=9 page=0 chnl=0
char id=34 x=210 y=362 width=12 height=12 xoffset=2 yoffset=15 xadvance=13 page=0 chnl=0
char id=35 x=160 y=2 width=18 height=28 xoffset=2 yoffset=14 xadvance=18 page=0 chnl=0
char id=36 x=210 y=200 width=14 height=28 xoffset=2 yoffset=14 xadvance=13 page=0 chnl=0
char id=37 x=50 y=2 width=24 height=28 xoffset=2 yoffset=14 xadvance=24 page=0 chnl=0
char id=38 x=140 y=2 width=18 height=28 xoffset=2 yoffset=14 xadvance=17 page=0 chnl=0
char id=39 x=330 y=226 width=8 height=12 xoffset=2 yoffset=15 xadvance=8 page=0 chnl=0
char id=40 x=210 y=266 width=10 height=34 xoffset=2 yoffset=13 xadvance=10 page=0 chnl=0
char id=41 x=210 y=230 width=10 height=34 xoffset=1 yoffset=13 xadvance=10 page=0 chnl=0
char id=42 x=120 y=366 width=14 height=14 xoffset=2 yoffset=14 xadvance=14 page=0 chnl=0
char id=43 x=150 y=362 width=14 height=16 xoffset=2 yoffset=23 xadvance=16 page=0 chnl=0
char id=44 x=320 y=226 width=8 height=14 xoffset=2 yoffset=33 xadvance=9 page=0 chnl=0
char id=45 x=136 y=370 width=10 height=8 xoffset=2 yoffset=26 xadvance=10 page=0 chnl=0
char id=46 x=302 y=236 width=8 height=8 xoffset=2 yoffset=34 xadvance=9 page=0 chnl=0
char id=47 x=180 y=304 width=12 height=30 xoffset=1 yoffset=13 xadvance=11 page=0 chnl=0
char id=48 x=194 y=350 width=14 height=28 xoffset=1 yoffset=14 xadvance=14 page=0 chnl=0
char id=49 x=240 y=248 width=10 height=28 xoffset=1 yoffset=14 xadvance=10 page=0 chnl=0
char id=50 x=194 y=320 width=14 height=28 xoffset=1 yoffset=14 xadvance=14 page=0 chnl=0
char id=51 x=194 y=290 width=14 height=28 xoffset=1 yoffset=14 xadvance=13 page=0 chnl=0
char id=52 x=314 y=100 width=16 height=28 xoffset=1 yoffset=14 xadvance=14 page=0 chnl=0
char id=53 x=194 y=260 width=14 height=28 xoffset=2 yoffset=14 xadvance=14 page=0 chnl=0
char id=54 x=194 y=230 width=14 height=28 xoffset=1 yoffset=14 xadvance=14 page=0 chnl=0
char id=55 x=194 y=200 width=14 height=28 xoffset=1 yoffset=14 xadvance=13 page=0 chnl=0
char id=56 x=296 y=100 width=16 height=28 xoffset=1 yoffset=14 xadvance=15 page=0 chnl=0
char id=57 x=354 y=170 width=14 height=28 xoffset=1 yoffset=14 xadvance=14 page=0 chnl=0
char id=58 x=292 y=226 width=8 height=20 xoffset=2 yoffset=22 xadvance=9 page=0 chnl=0
char id=59 x=272 y=272 width=8 height=26 xoffset=2 yoffset=21 xadvance=9 page=0 chnl=0
char id=60 x=274 y=226 width=16 height=16 xoffset=2 yoffset=23 xadvance=16 page=0 chnl=0
char id=61 x=332 y=122 width=14 height=12 xoffset=2 yoffset=26 xadvance=16 page=0 chnl=0
char id=62 x=256 y=226 width=16 height=16 xoffset=2 yoffset=23 xadvance=16 page=0 chnl=0
char id=63 x=226 y=286 width=12 height=28 xoffset=2 yoffset=14 xadvance=13 page=0 chnl=0
char id=64 x=22 y=32 width=22 height=32 xoffset=2 yoffset=13 xadvance=22 page=0 chnl=0
char id=65 x=120 y=2 width=18 height=28 xoffset=1 yoffset=14 xadvance=15 page=0 chnl=0
char id=66 x=358 y=68 width=16 height=28 xoffset=2 yoffset=14 xadvance=15 page=0 chnl=0
char id=67 x=226 y=256 width=12 height=28 xoffset=1 yoffset=14 xadvance=12 page=0 chnl=0
char id=68 x=340 y=68 width=16 height=28 xoffset=2 yoffset=14 xadvance=15 page=0 chnl=0
char id=69 x=226 y=226 width=12 height=28 xoffset=2 yoffset=14 xadvance=12 page=0 chnl=0
char id=70 x=210 y=332 width=12 height=28 xoffset=2 yoffset=14 xadvance=12 page=0 chnl=0
char id=71 x=322 y=68 width=16 height=28 xoffset=1 yoffset=14 xadvance=15 page=0 chnl=0
char id=72 x=304 y=68 width=16 height=28 xoffset=2 yoffset=14 xadvance=16 page=0 chnl=0
char id=73 x=252 y=352 width=8 height=28 xoffset=2 yoffset=14 xadvance=8 page=0 chnl=0
char id=74 x=370 y=170 width=10 height=28 xoffset=1 yoffset=14 xadvance=10 page=0 chnl=0
char id=75 x=348 y=2 width=16 height=28 xoffset=2 yoffset=14 xadvance=15 page=0 chnl=0
char id=76 x=210 y=302 width=12 height=28 xoffset=2 yoffset=14 xadvance=11 page=0 chnl=0
char id=77 x=76 y=2 width=22 height=28 xoffset=2 yoffset=14 xadvance=22 page=0 chnl=0
char id=78 x=330 y=2 width=16 height=28 xoffset=2 yoffset=14 xadvance=16 page=0 chnl=0
char id=79 x=312 y=2 width=16 height=28 xoffset=1 yoffset=14 xadvance=15 page=0 chnl=0
char id=80 x=294 y=2 width=16 height=28 xoffset=2 yoffset=14 xadvance=15 page=0 chnl=0
char id=81 x=206 y=32 width=18 height=32 xoffset=1 yoffset=14 xadvance=15 page=0 chnl=0
char id=82 x=276 y=2 width=16 height=28 xoffset=2 yoffset=14 xadvance=15 page=0 chnl=0
char id=83 x=338 y=170 width=14 height=28 xoffset=1 yoffset=14 xadvance=13 page=0 chnl=0
char id=84 x=322 y=170 width=14 height=28 xoffset=1 yoffset=14 xadvance=13 page=0 chnl=0
char id=85 x=258 y=2 width=16 height=28 xoffset=2 yoffset=14 xadvance=15 page=0 chnl=0
char id=86 x=240 y=2 width=16 height=28 xoffset=1 yoffset=14 xadvance=15 page=0 chnl=0
char id=87 x=22 y=2 width=26 height=28 xoffset=1 yoffset=14 xadvance=24 page=0 chnl=0
char id=88 x=100 y=2 width=18 height=28 xoffset=1 yoffset=14 xadvance=15 page=0 chnl=0
char id=89 x=222 y=2 width=16 height=28 xoffset=0 yoffset=14 xadvance=14 page=0 chnl=0
char id=90 x=306 y=170 width=14 height=28 xoffset=1 yoffset=14 xadvance=13 page=0 chnl=0
char id=91 x=180 y=336 width=10 height=34 xoffset=2 yoffset=13 xadvance=10 page=0 chnl=0
char id=92 x=180 y=272 width=12 height=30 xoffset=1 yoffset=13 xadvance=11 page=0 chnl=0
char id=93 x=370 y=32 width=10 height=34 xoffset=2 yoffset=13 xadvance=10 page=0 chnl=0
char id=94 x=84 y=368 width=16 height=12 xoffset=1 yoffset=12 xadvance=13 page=0 chnl=0
char id=95 x=296 y=130 width=16 height=6 xoffset=0 yoffset=42 xadvance=13 page=0 chnl=0
char id=96 x=180 y=372 width=8 height=8 xoffset=0 yoffset=13 xadvance=6 page=0 chnl=0
char id=97 x=360 y=200 width=14 height=22 xoffset=1 yoffset=20 xadvance=13 page=0 chnl=0
char id=98 x=358 y=138 width=14 height=30 xoffset=2 yoffset=12 xadvance=14 page=0 chnl=0
char id=99 x=276 y=248 width=12 height=22 xoffset=1 yoffset=20 xadvance=11 page=0 chnl=0
char id=100 x=342 y=138 width=14 height=30 xoffset=1 yoffset=12 xadvance=14 page=0 chnl=0
char id=101 x=344 y=200 width=14 height=22 xoffset=1 yoffset=20 xadvance=13 page=0 chnl=0
char id=102 x=180 y=240 width=12 height=30 xoffset=1 yoffset=12 xadvance=10 page=0 chnl=0
char id=103 x=290 y=170 width=14 height=28 xoffset=1 yoffset=21 xadvance=14 page=0 chnl=0
char id=104 x=326 y=138 width=14 height=30 xoffset=2 yoffset=12 xadvance=14 page=0 chnl=0
char id=105 x=262 y=304 width=8 height=30 xoffset=2 yoffset=12 xadvance=7 page=0 chnl=0
char id=106 x=370 y=100 width=10 height=36 xoffset=0 yoffset=12 xadvance=7 page=0 chnl=0
char id=107 x=310 y=138 width=14 height=30 xoffset=2 yoffset=12 xadvance=14 page=0 chnl=0
char id=108 x=262 y=272 width=8 height=30 xoffset=2 yoffset=12 xadvance=7 page=0 chnl=0
char id=109 x=180 y=2 width=22 height=22 xoffset=2 yoffset=20 xadvance=21 page=0 chnl=0
char id=110 x=328 y=200 width=14 height=22 xoffset=2 yoffset=20 xadvance=14 page=0 chnl=0
char id=111 x=312 y=200 width=14 height=22 xoffset=1 yoffset=20 xadvance=14 page=0 chnl=0
char id=112 x=274 y=170 width=14 height=28 xoffset=2 yoffset=20 xadvance=14 page=0 chnl=0
char id=113 x=258 y=170 width=14 height=28 xoffset=1 yoffset=20 xadvance=14 page=0 chnl=0
char id=114 x=262 y=248 width=12 height=22 xoffset=2 yoffset=20 xadvance=10 page=0 chnl=0
char id=115 x=296 y=200 width=14 height=22 xoffset=1 yoffset=20 xadvance=12 page=0 chnl=0
char id=116 x=226 y=316 width=12 height=26 xoffset=1 yoffset=16 xadvance=10 page=0 chnl=0
char id=117 x=280 y=200 width=14 height=22 xoffset=2 yoffset=20 xadvance=14 page=0 chnl=0
char id=118 x=262 y=200 width=16 height=20 xoffset=1 yoffset=22 xadvance=13 page=0 chnl=0
char id=119 x=332 y=100 width=22 height=20 xoffset=1 yoffset=22 xadvance=20 page=0 chnl=0
char id=120 x=102 y=358 width=16 height=20 xoffset=1 yoffset=22 xadvance=13 page=0 chnl=0
char id=121 x=242 y=170 width=14 height=28 xoffset=2 yoffset=21 xadvance=14 page=0 chnl=0
char id=122 x=240 y=226 width=14 height=20 xoffset=1 yoffset=22 xadvance=12 page=0 chnl=0
char id=123 x=180 y=170 width=12 height=34 xoffset=1 yoffset=13 xadvance=11 page=0 chnl=0
char id=124 x=252 y=284 width=8 height=34 xoffset=2 yoffset=13 xadvance=8 page=0 chnl=0
char id=125 x=166 y=314 width=12 height=34 xoffset=1 yoffset=13 xadvance=11 page=0 chnl=0
char id=126 x=302 y=226 width=16 height=8 xoffset=2 yoffset=25 xadvance=16 page=0 chnl=0
char id=10 x=180 y=26 width=2 height=2 xoffset=0 yoffset=40 xadvance=0 page=0 chnl=0
char id=192 x=186 y=32 width=18 height=34 xoffset=1 yoffset=8 xadvance=15 page=0 chnl=0
char id=193 x=166 y=32 width=18 height=34 xoffset=1 yoffset=8 xadvance=15 page=0 chnl=0
char id=194 x=146 y=32 width=18 height=34 xoffset=1 yoffset=8 xadvance=15 page=0 chnl=0
char id=195 x=126 y=32 width=18 height=34 xoffset=1 yoffset=8 xadvance=15 page=0 chnl=0
char id=200 x=166 y=278 width=12 height=34 xoffset=2 yoffset=8 xadvance=12 page=0 chnl=0
char id=201 x=166 y=242 width=12 height=34 xoffset=2 yoffset=8 xadvance=12 page=0 chnl=0
char id=202 x=166 y=206 width=12 height=34 xoffset=2 yoffset=8 xadvance=12 page=0 chnl=0
char id=204 x=252 y=248 width=8 height=34 xoffset=1 yoffset=8 xadvance=8 page=0 chnl=0
char id=205 x=240 y=314 width=8 height=34 xoffset=2 yoffset=8 xadvance=8 page=0 chnl=0
char id=210 x=84 y=292 width=16 height=34 xoffset=1 yoffset=8 xadvance=15 page=0 chnl=0
char id=211 x=84 y=256 width=16 height=34 xoffset=1 yoffset=8 xadvance=15 page=0 chnl=0
char id=212 x=84 y=220 width=16 height=34 xoffset=1 yoffset=8 xadvance=15 page=0 chnl=0
char id=213 x=84 y=184 width=16 height=34 xoffset=1 yoffset=8 xadvance=15 page=0 chnl=0
char id=217 x=84 y=148 width=16 height=34 xoffset=2 yoffset=8 xadvance=15 page=0 chnl=0
char id=218 x=352 y=32 width=16 height=34 xoffset=2 yoffset=8 xadvance=15 page=0 chnl=0
char id=221 x=334 y=32 width=16 height=34 xoffset=0 yoffset=8 xadvance=14 page=0 chnl=0
char id=224 x=294 y=138 width=14 height=30 xoffset=1 yoffset=12 xadvance=13 page=0 chnl=0
char id=225 x=278 y=138 width=14 height=30 xoffset=1 yoffset=12 xadvance=13 page=0 chnl=0
char id=226 x=262 y=138 width=14 height=30 xoffset=1 yoffset=12 xadvance=13 page=0 chnl=0
char id=227 x=246 y=138 width=14 height=30 xoffset=1 yoffset=12 xadvance=13 page=0 chnl=0
char id=232 x=230 y=138 width=14 height=30 xoffset=1 yoffset=12 xadvance=13 page=0 chnl=0
char id=233 x=214 y=138 width=14 height=30 xoffset=1 yoffset=12 xadvance=13 page=0 chnl=0
char id=234 x=198 y=138 width=14 height=30 xoffset=1 yoffset=12 xadvance=13 page=0 chnl=0
char id=236 x=252 y=320 width=8 height=30 xoffset=1 yoffset=12 xadvance=7 page=0 chnl=0
char id=237 x=240 y=350 width=8 height=30 xoffset=2 yoffset=12 xadvance=7 page=0 chnl=0
char id=242 x=182 y=138 width=14 height=30 xoffset=1 yoffset=12 xadvance=14 page=0 chnl=0
char id=243 x=166 y=138 width=14 height=30 xoffset=1 yoffset=12 xadvance=14 page=0 chnl=0
char id=244 x=150 y=330 width=14 height=30 xoffset=1 yoffset=12 xadvance=14 page=0 chnl=0
char id=245 x=150 y=298 width=14 height=30 xoffset=1 yoffset=12 xadvance=14 page=0 chnl=0
char id=249 x=150 y=266 width=14 height=30 xoffset=2 yoffset=12 xadvance=14 page=0 chnl=0
char id=250 x=150 y=234 width=14 height=30 xoffset=2 yoffset=12 xadvance=14 page=0 chnl=0
char id=253 x=200 y=100 width=14 height=36 xoffset=2 yoffset=13 xadvance=14 page=0 chnl=0
char id=258 x=106 y=32 width=18 height=34 xoffset=1 yoffset=8 xadvance=15 page=0 chnl=0
char id=259 x=150 y=202 width=14 height=30 xoffset=1 yoffset=12 xadvance=13 page=0 chnl=0
char id=272 x=204 y=2 width=16 height=28 xoffset=1 yoffset=14 xadvance=15 page=0 chnl=0
char id=273 x=286 y=68 width=16 height=30 xoffset=1 yoffset=12 xadvance=14 page=0 chnl=0
char id=296 x=166 y=170 width=12 height=34 xoffset=-1 yoffset=8 xadvance=8 page=0 chnl=0
char id=297 x=166 y=350 width=12 height=30 xoffset=-1 yoffset=12 xadvance=7 page=0 chnl=0
char id=360 x=316 y=32 width=16 height=34 xoffset=2 yoffset=8 xadvance=15 page=0 chnl=0
char id=361 x=150 y=170 width=14 height=30 xoffset=2 yoffset=12 xadvance=14 page=0 chnl=0
char id=416 x=122 y=68 width=18 height=30 xoffset=1 yoffset=12 xadvance=15 page=0 chnl=0
char id=417 x=244 y=200 width=16 height=24 xoffset=1 yoffset=18 xadvance=14 page=0 chnl=0
char id=431 x=102 y=68 width=18 height=30 xoffset=2 yoffset=12 xadvance=15 page=0 chnl=0
char id=432 x=226 y=200 width=16 height=24 xoffset=2 yoffset=18 xadvance=14 page=0 chnl=0
char id=7840 x=86 y=32 width=18 height=34 xoffset=1 yoffset=14 xadvance=15 page=0 chnl=0
char id=7841 x=226 y=170 width=14 height=28 xoffset=1 yoffset=20 xadvance=13 page=0 chnl=0
char id=7842 x=46 y=32 width=18 height=36 xoffset=1 yoffset=6 xadvance=15 page=0 chnl=0
char id=7843 x=280 y=100 width=14 height=32 xoffset=1 yoffset=10 xadvance=13 page=0 chnl=0
char id=7844 x=22 y=266 width=18 height=38 xoffset=1 yoffset=4 xadvance=15 page=0 chnl=0
char id=7845 x=84 y=68 width=16 height=36 xoffset=1 yoffset=6 xadvance=13 page=0 chnl=0
char id=7846 x=22 y=226 width=18 height=38 xoffset=1 yoffset=4 xadvance=15 page=0 chnl=0
char id=7847 x=184 y=100 width=14 height=36 xoffset=1 yoffset=6 xadvance=13 page=0 chnl=0
char id=7848 x=2 y=300 width=18 height=40 xoffset=1 yoffset=2 xadvance=15 page=0 chnl=0
char id=7849 x=22 y=186 width=18 height=38 xoffset=1 yoffset=4 xadvance=13 page=0 chnl=0
char id=7850 x=22 y=146 width=18 height=38 xoffset=1 yoffset=4 xadvance=15 page=0 chnl=0
char id=7851 x=168 y=100 width=14 height=36 xoffset=1 yoffset=6 xadvance=13 page=0 chnl=0
char id=7852 x=2 y=258 width=18 height=40 xoffset=1 yoffset=8 xadvance=15 page=0 chnl=0
char id=7853 x=152 y=100 width=14 height=36 xoffset=1 yoffset=12 xadvance=13 page=0 chnl=0
char id=7854 x=2 y=216 width=18 height=40 xoffset=1 yoffset=2 xadvance=15 page=0 chnl=0
char id=7855 x=136 y=100 width=14 height=36 xoffset=1 yoffset=6 xadvance=13 page=0 chnl=0
char id=7856 x=2 y=174 width=18 height=40 xoffset=1 yoffset=2 xadvance=15 page=0 chnl=0
char id=7857 x=120 y=328 width=14 height=36 xoffset=1 yoffset=6 xadvance=13 page=0 chnl=0
char id=7858 x=2 y=46 width=18 height=42 xoffset=1 yoffset=0 xadvance=15 page=0 chnl=0
char id=7859 x=120 y=290 width=14 height=36 xoffset=1 yoffset=6 xadvance=13 page=0 chnl=0
char id=7860 x=2 y=132 width=18 height=40 xoffset=1 yoffset=2 xadvance=15 page=0 chnl=0
char id=7861 x=120 y=252 width=14 height=36 xoffset=1 yoffset=6 xadvance=13 page=0 chnl=0
char id=7862 x=2 y=90 width=18 height=40 xoffset=1 yoffset=8 xadvance=15 page=0 chnl=0
char id=7863 x=120 y=214 width=14 height=36 xoffset=1 yoffset=12 xadvance=13 page=0 chnl=0
char id=7864 x=136 y=334 width=12 height=34 xoffset=2 yoffset=14 xadvance=12 page=0 chnl=0
char id=7865 x=210 y=170 width=14 height=28 xoffset=1 yoffset=20 xadvance=13 page=0 chnl=0
char id=7866 x=136 y=260 width=12 height=36 xoffset=2 yoffset=6 xadvance=12 page=0 chnl=0
char id=7867 x=264 y=100 width=14 height=32 xoffset=1 yoffset=10 xadvance=13 page=0 chnl=0
char id=7868 x=136 y=298 width=12 height=34 xoffset=2 yoffset=8 xadvance=12 page=0 chnl=0
char id=7869 x=150 y=138 width=14 height=30 xoffset=1 yoffset=12 xadvance=13 page=0 chnl=0
char id=7870 x=84 y=328 width=14 height=38 xoffset=2 yoffset=4 xadvance=12 page=0 chnl=0
char id=7871 x=66 y=340 width=16 height=36 xoffset=1 yoffset=6 xadvance=13 page=0 chnl=0
char id=7872 x=136 y=220 width=12 height=38 xoffset=2 yoffset=4 xadvance=12 page=0 chnl=0
char id=7873 x=120 y=176 width=14 height=36 xoffset=1 yoffset=6 xadvance=13 page=0 chnl=0
char id=7874 x=46 y=154 width=16 height=40 xoffset=2 yoffset=2 xadvance=12 page=0 chnl=0
char id=7875 x=66 y=148 width=16 height=38 xoffset=1 yoffset=4 xadvance=13 page=0 chnl=0
char id=7876 x=136 y=180 width=12 height=38 xoffset=2 yoffset=4 xadvance=12 page=0 chnl=0
char id=7877 x=120 y=138 width=14 height=36 xoffset=1 yoffset=6 xadvance=13 page=0 chnl=0
char id=7878 x=136 y=138 width=12 height=40 xoffset=2 yoffset=8 xadvance=12 page=0 chnl=0
char id=7879 x=120 y=100 width=14 height=36 xoffset=1 yoffset=12 xadvance=13 page=0 chnl=0
char id=7880 x=356 y=100 width=12 height=36 xoffset=0 yoffset=6 xadvance=8 page=0 chnl=0
char id=7881 x=180 y=206 width=12 height=32 xoffset=0 yoffset=10 xadvance=7 page=0 chnl=0
char id=7882 x=240 y=278 width=8 height=34 xoffset=2 yoffset=14 xadvance=8 page=0 chnl=0
char id=7883 x=226 y=344 width=8 height=36 xoffset=2 yoffset=12 xadvance=7 page=0 chnl=0
char id=7884 x=298 y=32 width=16 height=34 xoffset=1 yoffset=14 xadvance=15 page=0 chnl=0
char id=7885 x=194 y=170 width=14 height=28 xoffset=1 yoffset=20 xadvance=14 page=0 chnl=0
char id=7886 x=66 y=302 width=16 height=36 xoffset=1 yoffset=6 xadvance=15 page=0 chnl=0
char id=7887 x=248 y=100 width=14 height=32 xoffset=1 yoffset=10 xadvance=14 page=0 chnl=0
char id=7888 x=66 y=108 width=16 height=38 xoffset=1 yoffset=4 xadvance=15 page=0 chnl=0
char id=7889 x=66 y=264 width=16 height=36 xoffset=1 yoffset=6 xadvance=14 page=0 chnl=0
char id=7890 x=66 y=68 width=16 height=38 xoffset=1 yoffset=4 xadvance=15 page=0 chnl=0
char id=7891 x=102 y=320 width=14 height=36 xoffset=1 yoffset=6 xadvance=14 page=0 chnl=0
char id=7892 x=2 y=2 width=18 height=42 xoffset=1 yoffset=0 xadvance=15 page=0 chnl=0
char id=7893 x=22 y=106 width=18 height=38 xoffset=1 yoffset=4 xadvance=14 page=0 chnl=0
char id=7894 x=46 y=112 width=16 height=40 xoffset=1 yoffset=2 xadvance=15 page=0 chnl=0
char id=7895 x=102 y=282 width=14 height=36 xoffset=1 yoffset=6 xadvance=14 page=0 chnl=0
char id=7896 x=46 y=70 width=16 height=40 xoffset=1 yoffset=8 xadvance=15 page=0 chnl=0
char id=7897 x=102 y=244 width=14 height=36 xoffset=1 yoffset=12 xadvance=14 page=0 chnl=0
char id=7898 x=66 y=32 width=18 height=34 xoffset=1 yoffset=8 xadvance=15 page=0 chnl=0
char id=7899 x=268 y=68 width=16 height=30 xoffset=1 yoffset=12 xadvance=14 page=0 chnl=0
char id=7900 x=46 y=340 width=18 height=34 xoffset=1 yoffset=8 xadvance=15 page=0 chnl=0
char id=7901 x=250 y=68 width=16 height=30 xoffset=1 yoffset=12 xadvance=14 page=0 chnl=0
char id=7902 x=22 y=344 width=18 height=36 xoffset=1 yoffset=6 xadvance=15 page=0 chnl=0
char id=7903 x=102 y=134 width=16 height=32 xoffset=1 yoffset=10 xadvance=14 page=0 chnl=0
char id=7904 x=46 y=304 width=18 height=34 xoffset=1 yoffset=8 xadvance=15 page=0 chnl=0
char id=7905 x=232 y=68 width=16 height=30 xoffset=1 yoffset=12 xadvance=14 page=0 chnl=0
char id=7906 x=22 y=66 width=18 height=38 xoffset=1 yoffset=10 xadvance=15 page=0 chnl=0
char id=7907 x=214 y=68 width=16 height=30 xoffset=1 yoffset=18 xadvance=14 page=0 chnl=0
char id=7908 x=280 y=32 width=16 height=34 xoffset=2 yoffset=14 xadvance=15 page=0 chnl=0
char id=7909 x=366 y=2 width=14 height=28 xoffset=2 yoffset=20 xadvance=14 page=0 chnl=0
char id=7910 x=66 y=226 width=16 height=36 xoffset=2 yoffset=6 xadvance=15 page=0 chnl=0
char id=7911 x=232 y=100 width=14 height=32 xoffset=2 yoffset=10 xadvance=14 page=0 chnl=0
char id=7912 x=46 y=268 width=18 height=34 xoffset=2 yoffset=8 xadvance=15 page=0 chnl=0
char id=7913 x=196 y=68 width=16 height=30 xoffset=2 yoffset=12 xadvance=14 page=0 chnl=0
char id=7914 x=46 y=232 width=18 height=34 xoffset=2 yoffset=8 xadvance=15 page=0 chnl=0
char id=7915 x=178 y=68 width=16 height=30 xoffset=2 yoffset=12 xadvance=14 page=0 chnl=0
char id=7916 x=22 y=306 width=18 height=36 xoffset=2 yoffset=6 xadvance=15 page=0 chnl=0
char id=7917 x=102 y=100 width=16 height=32 xoffset=2 yoffset=10 xadvance=14 page=0 chnl=0
char id=7918 x=46 y=196 width=18 height=34 xoffset=2 yoffset=8 xadvance=15 page=0 chnl=0
char id=7919 x=160 y=68 width=16 height=30 xoffset=2 yoffset=12 xadvance=14 page=0 chnl=0
char id=7920 x=2 y=342 width=18 height=38 xoffset=2 yoffset=10 xadvance=15 page=0 chnl=0
char id=7921 x=142 y=68 width=16 height=30 xoffset=2 yoffset=18 xadvance=14 page=0 chnl=0
char id=7922 x=262 y=32 width=16 height=34 xoffset=0 yoffset=8 xadvance=14 page=0 chnl=0
char id=7923 x=102 y=206 width=14 height=36 xoffset=2 yoffset=13 xadvance=14 page=0 chnl=0
char id=7924 x=244 y=32 width=16 height=34 xoffset=0 yoffset=14 xadvance=14 page=0 chnl=0
char id=7925 x=216 y=100 width=14 height=34 xoffset=2 yoffset=22 xadvance=14 page=0 chnl=0
char id=7926 x=66 y=188 width=16 height=36 xoffset=0 yoffset=6 xadvance=14 page=0 chnl=0
char id=7927 x=84 y=106 width=14 height=40 xoffset=2 yoffset=9 xadvance=14 page=0 chnl=0
char id=7928 x=226 y=32 width=16 height=34 xoffset=0 yoffset=8 xadvance=14 page=0 chnl=0
char id=7929 x=102 y=168 width=14 height=36 xoffset=2 yoffset=13 xadvance=14 page=0 chnl=0
